…
``` r
library(ycevo)
library(lubridate)
#> 
#> Attaching package: 'lubridate'
#> The following objects are masked from 'package:base':
#> 
#>     date, intersect, setdiff, union

## Simulate
set.seed(1)
bonds <- ycevo_data()
bonds
#> # A tibble: 388,795 × 5
#>    qdate      id              price  tupq  pdint
#>    <date>     <fct>           <dbl> <dbl>  <dbl>
#>  1 2023-01-02 20230106.106643  103.     4 103.  
#>  2 2023-01-02 20230721.107768  106.    19   3.88
#>  3 2023-01-02 20230721.107768  106.   200 104.  
#>  4 2023-01-02 20240203.106386  106.    32   3.19
#>  5 2023-01-02 20240203.106386  106.   213   3.19
#>  6 2023-01-02 20240203.106386  106.   397 103.  
#>  7 2023-01-02 20240817.109392  113.    46   4.70
#>  8 2023-01-02 20240817.109392  113.   227   4.70
#>  9 2023-01-02 20240817.109392  113.   411   4.70
#> 10 2023-01-02 20240817.109392  113.   593 105.  
#> # ℹ 388,785 more rows
```
…
``` r
## Predict
augment(res)
#> # A tibble: 438 × 4
#>    qdate         tau .discount .yield
#>    <date>      <dbl>     <dbl>  <dbl>
#>  1 2023-03-01 0.0822     0.986 0.169 
#>  2 2023-03-01 0.164      0.985 0.0912
#>  3 2023-03-01 0.247      0.984 0.0654
#>  4 2023-03-01 0.329      0.983 0.0528
#>  5 2023-03-01 0.411      0.982 0.0454
#>  6 2023-03-01 0.493      0.980 0.0407
#>  7 2023-03-01 0.658      0.977 0.0351
#>  8 2023-03-01 0.822      0.974 0.0321
#>  9 2023-03-01 0.986      0.970 0.0305
#> 10 2023-03-01 1.15       0.967 0.0296
#> # ℹ 428 more rows
…
